…
DataFrame <- data.frame(names(DataMatrix), DataMatrix) %>%
   select(everything()) %>%
    mutate(rank = row_number()) %>%      
    rename(term = names.DataMatrix.) %>%
    rename(frequency = DataMatrix)
```
## Resultan Skrip / Script Resultant
```r
tibble(DataFrame)
# A tibble: 847 × 3
   term       frequency  rank
   <chr>          <dbl> <int>
 1 wacana           126     1
 2 analisis          67     2
 3 bahasa            41     3
 4 teks              34     4
 5 konteks           32     5
 6 pandangan         27     6
 7 paradigma         26     7
 8 sosial            26     8
 9 fairclough        19     9
10 kekuasaan         19    10
# … with 837 more rows
```
…
